{
  "order_status": [],
  "orderHistoryResponse": {
    "content": [
      {
        "orderNo": "1017456757",
        "orderType": "C",
        "status": "C",
        "orderDate": "2023-09-12",
        "orderBy": "",
        "po": "***test GP%*****",
        "jobName": "***test GP%*****",
        "orderTotal": 2.22,
        "tax": 2.22,
        "totalAmountWithTax": 2.22
      },
      {
        "orderNo": "1017454212",
        "orderType": "C",
        "status": "C",
        "orderDate": "2023-09-11",
        "orderBy": "",
        "po": "***test price*****",
        "jobName": "***test price*****",
        "orderTotal": 1.62,
        "tax": 1.62,
        "totalAmountWithTax": 1.62
      },
      {
        "orderNo": "200890473",
        "orderType": "C",
        "status": "C",
        "orderDate": "2023-09-03",
        "orderBy": "Dinithi Ranasinghe",
        "po": "villvay-QA-testorder",
        "jobName": "villvay-QA-testorder-7",
        "orderTotal": 68.61,
        "tax": 68.61,
        "totalAmountWithTax": 68.61
      },
      {
        "orderNo": "200890476",
        "orderType": "C",
        "status": "C",
        "orderDate": "2023-09-03",
        "orderBy": "Dinithi Ranasinghe",
        "po": "villvay-QA-testorder",
        "jobName": "villvay-QA-testorder-10",
        "orderTotal": 52.04,
        "tax": 52.04,
        "totalAmountWithTax": 52.04
      },
      {
        "orderNo": "200890477",
        "orderType": "C",
        "status": "C",
        "orderDate": "2023-09-03",
        "orderBy": "Rifka Hashim",
        "po": "villvay-QA-testorder",
        "jobName": "villvay-QA-testorder-11",
        "orderTotal": 0.43,
        "tax": 0.43,
        "totalAmountWithTax": 0.43
      },
      {
        "orderNo": "200890474",
        "orderType": "C",
        "status": "C",
        "orderDate": "2023-09-03",
        "orderBy": "Dinithi Ranasinghe",
        "po": "villvay-QA-testorder",
        "jobName": "villvay-QA-testorder-8",
        "orderTotal": 15.93,
        "tax": 15.93,
        "totalAmountWithTax": 15.93
      },
      {
        "orderNo": "200890475",
        "orderType": "C",
        "status": "C",
        "orderDate": "2023-09-03",
        "orderBy": "Dinithi Ranasinghe",
        "po": "villvay-QA-testorder",
        "jobName": "villvay-QA-testorder-9",
        "orderTotal": 9.98,
        "tax": 9.98,
        "totalAmountWithTax": 9.98
      },
      {
        "orderNo": "200890481",
        "orderType": "C",
        "status": "I",
        "orderDate": "2023-09-03",
        "orderBy": "ehull@wurthlac.com",
        "po": "r423t",
        "jobName": "51",
        "orderTotal": 127.38,
        "tax": 7,
        "totalAmountWithTax": 127.38
      },
      {
        "orderNo": "200890461",
        "orderType": "C",
        "status": "C",
        "orderDate": "2023-09-02",
        "orderBy": "Villvay QATeam",
        "po": "villvay-QA-testorder",
        "jobName": "villvay-QA-testorder-6",
        "orderTotal": 0.7,
        "tax": 0.7,
        "totalAmountWithTax": 0.7
      },
      {
        "orderNo": "200890460",
        "orderType": "C",
        "status": "C",
        "orderDate": "2023-09-02",
        "orderBy": "Villvay1 QATeam1",
        "po": "villvay-QA-testorder",
        "jobName": "villvay-QA-testorder 5",
        "orderTotal": 342.07,
        "tax": 342.07,
        "totalAmountWithTax": 342.07
      }
    ],
    "pageable": {
      "sort": {
        "sorted": true,
        "unsorted": false,
        "empty": false
      },
      "pageSize": 10,
      "pageNumber": 0,
      "offset": 0,
      "paged": true,
      "unpaged": false
    },
    "totalElements": 198,
    "last": false,
    "totalPages": 20,
    "sort": {
      "sorted": true,
      "unsorted": false,
      "empty": false
    },
    "first": true,
    "numberOfElements": 10,
    "size": 10,
    "number": 0,
    "empty": false
  }
}
